<?xml version="1.0" encoding="UTF-8" standalone="no"?>
<svg
   xmlns:dc="http://purl.org/dc/elements/1.1/"
   xmlns:cc="http://creativecommons.org/ns#"
   xmlns:rdf="http://www.w3.org/1999/02/22-rdf-syntax-ns#"
   xmlns:svg="http://www.w3.org/2000/svg"
   xmlns="http://www.w3.org/2000/svg"
   xmlns:xlink="http://www.w3.org/1999/xlink"
   xmlns:sodipodi="http://sodipodi.sourceforge.net/DTD/sodipodi-0.dtd"
   xmlns:inkscape="http://www.inkscape.org/namespaces/inkscape"
   inkscape:version="1.0.1 (3bc2e813f5, 2020-09-07)"
   id="svg8"
   version="1.1"
   viewBox="0 0 67.733332 33.866668"
   height="128"
   width="256"
   sodipodi:docname="wordreference.svg">
  <defs
     id="defs2">
	
	
<linearGradient
   x1="112.49854"
   y1="6.1372099"
   x2="112.49853"
   y2="129.3468"
   id="path1082_2_"
   gradientUnits="userSpaceOnUse"
   gradientTransform="translate(287,-83)">
  <stop
     id="stop193"
     style="stop-color:#ffffff;stop-opacity:0"
     offset="0" />
  <stop
     id="stop195"
     style="stop-color:#ffffff;stop-opacity:0.27450982"
     offset="1" />
  <midPointStop
     offset="0"
     style="stop-color:#FFFFFF"
     id="midPointStop197" />
  <midPointStop
     offset="0.5"
     style="stop-color:#FFFFFF"
     id="midPointStop199" />
  <midPointStop
     offset="1"
     style="stop-color:#000000"
     id="midPointStop201" />
</linearGradient>
<linearGradient
   x1="541.33502"
   y1="104.50665"
   x2="606.91248"
   y2="303.14029"
   id="linearGradient2544"
   xlink:href="#path1082_2_"
   gradientUnits="userSpaceOnUse"
   gradientTransform="matrix(-0.3937741,0,0,0.393752,357.51969,122.00151)" />
<linearGradient
   id="linearGradient3388">
  <stop
     id="stop3390"
     style="stop-color:#000000;stop-opacity:0"
     offset="0" />
  <stop
     id="stop3392"
     style="stop-color:#000000;stop-opacity:0.37113401"
     offset="1" />
</linearGradient>
<linearGradient
   x1="490.72305"
   y1="237.72447"
   x2="490.72305"
   y2="183.9644"
   id="linearGradient4416"
   xlink:href="#linearGradient3388"
   gradientUnits="userSpaceOnUse"
   gradientTransform="matrix(0.749107,0,0,0.749107,-35.459862,91.44108)" />
<clipPath
   clipPathUnits="userSpaceOnUse"
   id="clipPath3083">
  <path
     d="M 0,551.986 H 530.973 V 0 H 0 Z"
     id="path3081" />
</clipPath>
<linearGradient
   id="linear-gradient"
   x1="110.25"
   y1="213.3"
   x2="496.14"
   y2="436.09"
   gradientUnits="userSpaceOnUse">
  <stop
     offset="0"
     stop-color="#aa5cc3"
     id="stop4243" />
  <stop
     offset="1"
     stop-color="#00a4dc"
     id="stop4245" />
</linearGradient>
</defs>
  <sodipodi:namedview
     units="px"
     showgrid="false"
     inkscape:document-rotation="0"
     inkscape:current-layer="layer1"
     inkscape:document-units="px"
     inkscape:cy="46.857539"
     inkscape:cx="153.61027"
     inkscape:zoom="5.12"
     inkscape:pageshadow="2"
     inkscape:pageopacity="0"
     borderopacity="1.0"
     bordercolor="#666666"
     pagecolor="#ffffff"
     id="base"
     inkscape:window-width="2560"
     inkscape:window-height="1376"
     inkscape:window-x="0"
     inkscape:window-y="0"
     inkscape:window-maximized="1"
     inkscape:snap-page="false"
     inkscape:snap-bbox="true"
     inkscape:object-paths="true"
     inkscape:snap-intersection-paths="false"
     inkscape:snap-smooth-nodes="true" />
  <metadata
     id="metadata5">
    <rdf:RDF>
      <cc:Work
         rdf:about="">
        <dc:format>image/svg+xml</dc:format>
        <dc:type
           rdf:resource="http://purl.org/dc/dcmitype/StillImage" />
        <dc:title></dc:title>
      </cc:Work>
    </rdf:RDF>
  </metadata>
  <g
     id="layer1"
     inkscape:groupmode="layer"
     inkscape:label="Layer 1">
    <rect
       style="fill:#98c1f1;stroke-width:3.47906;stroke-linecap:round;paint-order:markers stroke fill"
       id="rect848"
       width="67.733337"
       height="33.866669"
       x="-1.7011719e-06"
       y="-8.5058593e-07" />
    <text
       xml:space="preserve"
       style="font-size:1.41111px;line-height:1.25;font-family:sans-serif;letter-spacing:0px;word-spacing:0px;stroke-width:0.264583"
       x="16.085501"
       y="-6.6101427"
       id="text4216"><tspan
         sodipodi:role="line"
         id="tspan4214"
         x="16.085501"
         y="-6.6101427"
         style="stroke-width:0.264583" /></text>
    <g
       id="g4373"
       transform="matrix(0.09856508,0,0,0.09856508,56.759749,18.478844)">
      <path
         style="fill:#1c71d8;stroke:none;stroke-width:0.264583px;stroke-linecap:butt;stroke-linejoin:miter;stroke-opacity:1"
         d="m -361.1125,-49.316217 25.07279,93.572807 27.74538,1.12e-4 16.02785,-59.816802 16.10648,59.81669 h 28.03399 l 25.11576,-93.572807 h -25.44681 l -14.70114,63.982635 -16.39677,-63.982635 h -23.74694 l -17.99794,63.417424 -14.04064,-63.417424 z"
         id="path4364"
         sodipodi:nodetypes="cccccccccccccc" />
      <path
         id="path4366"
         style="fill:#ff7800;stroke:none;stroke-width:0.999999px;stroke-linecap:butt;stroke-linejoin:miter;stroke-opacity:1"
         d="m -618.49023,-357.88672 c -22.38949,0.12306 -47.89534,1.95988 -76.50782,6.45899 -130.79984,20.56732 -217.14732,86.44909 -234.77734,134.08398 -17.62998,47.63489 20.48047,81.5625 20.48047,81.5625 10.3415,-19.4075 21.68512,-46.63787 65.17187,-82.24414 98.7442,-80.8502 223.13477,-76.92969 223.13477,-76.92969 0,0 116.37764,5.87542 94.74219,86.10156 -21.63542,80.22615 -102.81055,97.06446 -102.81055,97.06446 0,0 -42.26698,-15.1399 -72.61719,12.818357 -17.93253,19.767673 -27.30796,43.141934 -27.28906,64.556641 22.66156,12.335629 50.13477,2.316406 50.13477,2.316406 37.6648,108.538809 109.8789,185.830076 109.8789,185.830076 0,0 24.66482,30.72034 66.15039,33.39063 41.48561,2.67029 72.20279,-29.73383 95.52735,-53.68555 7.87736,-8.95653 25.39886,-38.7719 10.76562,-79.289062 -19.09406,27.212605 -44.51277,53.990712 -71.92969,56.402342 -57.69653,5.07507 -131.28711,-175.972655 -131.28711,-175.972655 0,0 113.43507,-51.817745 145.57618,-104.884765 32.1411,-53.06701 13.17408,-106.22791 1.15625,-128.04492 -12.01784,-21.81702 -45.32618,-38.5625 -45.32618,-38.5625 0,0 -40.21137,-21.41216 -120.17382,-20.97266 z m -110.47266,323.472658 c -0.41632,-0.202753 0.41949,0.214234 0,0 z m 1.07227,-220.527348 c -28.74652,-0.65331 -82.73243,23.16602 -82.73243,23.16602 0,0 17.85282,10.32864 12.59961,37.77539 -5.25324,27.44674 -78.87695,400.05859 -78.87695,400.05859 0,0 -5.34296,23.86512 11.12891,30.63086 16.47186,6.76575 44.875,-1.42578 44.875,-1.42578 l 47.45703,-18.07226 c 0,0 -10.30928,-10.9509 -7.32617,-26.71094 2.98306,-15.76004 80.42773,-406.79688 80.42773,-406.79688 0,0 4.53373,-33.74783 -22.16406,-38.15429 -1.66861,-0.27541 -3.47224,-0.42715 -5.38867,-0.47071 z"
         transform="scale(0.26458334)" />
    </g>
  </g>
</svg>
